Mar 02, 2014 6:57:16 PM org.apache.solr.servlet.SolrDispatchFilter init
INFO: SolrDispatchFilter.init()
Mar 02, 2014 6:57:16 PM org.apache.solr.core.SolrResourceLoader locateSolrHome
INFO: JNDI not configured for solr (NoInitialContextEx)
Mar 02, 2014 6:57:16 PM org.apache.solr.core.SolrResourceLoader locateSolrHome
INFO: using system property solr.solr.home: /storage/personal/clear/sombrero/solr
Mar 02, 2014 6:57:16 PM org.apache.solr.core.CoreContainer$Initializer initialize
INFO: looking for solr.xml: /storage/personal/clear/sombrero/solr/solr.xml
Mar 02, 2014 6:57:16 PM org.apache.solr.core.CoreContainer <init>
INFO: New CoreContainer 1104533167
Mar 02, 2014 6:57:16 PM org.apache.solr.core.CoreContainer load
INFO: Loading CoreContainer using Solr Home: '/storage/personal/clear/sombrero/solr/'
Mar 02, 2014 6:57:16 PM org.apache.solr.core.SolrResourceLoader <init>
INFO: new SolrResourceLoader for directory: '/storage/personal/clear/sombrero/solr/'
Mar 02, 2014 6:57:17 PM org.apache.solr.handler.component.HttpShardHandlerFactory getParameter
INFO: Setting socketTimeout to: 0
Mar 02, 2014 6:57:17 PM org.apache.solr.handler.component.HttpShardHandlerFactory getParameter
INFO: Setting urlScheme to: http://
Mar 02, 2014 6:57:17 PM org.apache.solr.handler.component.HttpShardHandlerFactory getParameter
INFO: Setting connTimeout to: 0
Mar 02, 2014 6:57:17 PM org.apache.solr.handler.component.HttpShardHandlerFactory getParameter
INFO: Setting maxConnectionsPerHost to: 20
Mar 02, 2014 6:57:17 PM org.apache.solr.handler.component.HttpShardHandlerFactory getParameter
INFO: Setting corePoolSize to: 0
Mar 02, 2014 6:57:17 PM org.apache.solr.handler.component.HttpShardHandlerFactory getParameter
INFO: Setting maximumPoolSize to: 2147483647
Mar 02, 2014 6:57:17 PM org.apache.solr.handler.component.HttpShardHandlerFactory getParameter
INFO: Setting maxThreadIdleTime to: 5
Mar 02, 2014 6:57:17 PM org.apache.solr.handler.component.HttpShardHandlerFactory getParameter
INFO: Setting sizeOfQueue to: -1
Mar 02, 2014 6:57:17 PM org.apache.solr.handler.component.HttpShardHandlerFactory getParameter
INFO: Setting fairnessPolicy to: false
Mar 02, 2014 6:57:17 PM org.apache.solr.client.solrj.impl.HttpClientUtil createClient
INFO: Creating new http client, config:maxConnectionsPerHost=20&maxConnections=10000&socketTimeout=0&connTimeout=0&retry=false
Mar 02, 2014 6:57:17 PM org.apache.solr.core.CoreContainer load
INFO: Registering Log Listener
Mar 02, 2014 6:57:17 PM org.apache.solr.core.CoreContainer create
INFO: Creating SolrCore 'default' using instanceDir: /storage/personal/clear/sombrero/solr/.
Mar 02, 2014 6:57:17 PM org.apache.solr.core.SolrResourceLoader <init>
INFO: new SolrResourceLoader for directory: '/storage/personal/clear/sombrero/solr/./'
Mar 02, 2014 6:57:17 PM org.apache.solr.core.CoreContainer create
INFO: Creating SolrCore 'development' using instanceDir: /storage/personal/clear/sombrero/solr/.
Mar 02, 2014 6:57:17 PM org.apache.solr.core.SolrResourceLoader <init>
INFO: new SolrResourceLoader for directory: '/storage/personal/clear/sombrero/solr/./'
Mar 02, 2014 6:57:17 PM org.apache.solr.core.CoreContainer create
INFO: Creating SolrCore 'test' using instanceDir: /storage/personal/clear/sombrero/solr/.
Mar 02, 2014 6:57:17 PM org.apache.solr.core.SolrResourceLoader <init>
INFO: new SolrResourceLoader for directory: '/storage/personal/clear/sombrero/solr/./'
Mar 02, 2014 6:57:17 PM org.apache.solr.core.SolrConfig <init>
INFO: Using Lucene MatchVersion: LUCENE_41
Mar 02, 2014 6:57:17 PM org.apache.solr.core.SolrConfig <init>
INFO: Using Lucene MatchVersion: LUCENE_41
Mar 02, 2014 6:57:17 PM org.apache.solr.core.SolrConfig <init>
INFO: Using Lucene MatchVersion: LUCENE_41
Mar 02, 2014 6:57:18 PM org.apache.solr.core.SolrConfig <init>
INFO: Loaded SolrConfig: solrconfig.xml
Mar 02, 2014 6:57:18 PM org.apache.solr.core.SolrConfig <init>
INFO: Loaded SolrConfig: solrconfig.xml
Mar 02, 2014 6:57:18 PM org.apache.solr.schema.IndexSchema readSchema
INFO: Reading Solr Schema
Mar 02, 2014 6:57:18 PM org.apache.solr.schema.IndexSchema readSchema
INFO: Reading Solr Schema
Mar 02, 2014 6:57:18 PM org.apache.solr.core.SolrConfig <init>
INFO: Loaded SolrConfig: solrconfig.xml
Mar 02, 2014 6:57:18 PM org.apache.solr.schema.IndexSchema readSchema
INFO: Reading Solr Schema
Mar 02, 2014 6:57:18 PM org.apache.solr.schema.IndexSchema readSchema
INFO: Schema name=sunspot
Mar 02, 2014 6:57:18 PM org.apache.solr.schema.IndexSchema readSchema
INFO: Schema name=sunspot
Mar 02, 2014 6:57:18 PM org.apache.solr.schema.IndexSchema readSchema
INFO: Schema name=sunspot
Mar 02, 2014 6:57:18 PM org.apache.solr.schema.IndexSchema readSchema
INFO: default search field in schema is text
Mar 02, 2014 6:57:18 PM org.apache.solr.schema.IndexSchema readSchema
INFO: query parser default operator is AND
Mar 02, 2014 6:57:18 PM org.apache.solr.schema.IndexSchema readSchema
INFO: unique key field: id
Mar 02, 2014 6:57:18 PM org.apache.solr.schema.IndexSchema readSchema
INFO: default search field in schema is text
Mar 02, 2014 6:57:18 PM org.apache.solr.schema.IndexSchema readSchema
INFO: default search field in schema is text
Mar 02, 2014 6:57:18 PM org.apache.solr.schema.IndexSchema readSchema
INFO: query parser default operator is AND
Mar 02, 2014 6:57:18 PM org.apache.solr.schema.IndexSchema readSchema
INFO: unique key field: id
Mar 02, 2014 6:57:18 PM org.apache.solr.schema.IndexSchema readSchema
INFO: query parser default operator is AND
Mar 02, 2014 6:57:18 PM org.apache.solr.schema.IndexSchema readSchema
INFO: unique key field: id
Mar 02, 2014 6:57:18 PM org.apache.solr.core.SolrCore <init>
INFO: [default] Opening new SolrCore at /storage/personal/clear/sombrero/solr/./, dataDir=/storage/personal/clear/sombrero/solr/./default/data/
Mar 02, 2014 6:57:18 PM org.apache.solr.core.SolrCore <init>
INFO: JMX monitoring not detected for core: default
Mar 02, 2014 6:57:18 PM org.apache.solr.core.SolrCore initDirectoryFactory
INFO: solr.NRTCachingDirectoryFactory
Mar 02, 2014 6:57:18 PM org.apache.solr.core.SolrCore <init>
INFO: [test] Opening new SolrCore at /storage/personal/clear/sombrero/solr/./, dataDir=/storage/personal/clear/sombrero/solr/./test/data/
Mar 02, 2014 6:57:18 PM org.apache.solr.core.SolrCore <init>
INFO: JMX monitoring not detected for core: test
Mar 02, 2014 6:57:18 PM org.apache.solr.core.SolrCore initDirectoryFactory
INFO: solr.NRTCachingDirectoryFactory
Mar 02, 2014 6:57:18 PM org.apache.solr.core.SolrCore <init>
INFO: [development] Opening new SolrCore at /storage/personal/clear/sombrero/solr/./, dataDir=/storage/personal/clear/sombrero/solr/./development/data/
Mar 02, 2014 6:57:18 PM org.apache.solr.core.SolrCore <init>
INFO: JMX monitoring not detected for core: development
Mar 02, 2014 6:57:18 PM org.apache.solr.core.SolrCore initDirectoryFactory
INFO: solr.NRTCachingDirectoryFactory
Mar 02, 2014 6:57:18 PM org.apache.solr.core.CachingDirectoryFactory get
INFO: return new directory for /storage/personal/clear/sombrero/solr/./test/data forceNew: false
Mar 02, 2014 6:57:18 PM org.apache.solr.core.SolrCore getNewIndexDir
INFO: New index directory detected: old=null new=/storage/personal/clear/sombrero/solr/./test/data/index/
Mar 02, 2014 6:57:18 PM org.apache.solr.core.SolrCore initIndex
WARNING: [test] Solr index directory '/storage/personal/clear/sombrero/solr/./test/data/index' doesn't exist. Creating new index...
Mar 02, 2014 6:57:18 PM org.apache.solr.core.CachingDirectoryFactory get
INFO: return new directory for /storage/personal/clear/sombrero/solr/./default/data forceNew: false
Mar 02, 2014 6:57:18 PM org.apache.solr.core.SolrCore getNewIndexDir
INFO: New index directory detected: old=null new=/storage/personal/clear/sombrero/solr/./default/data/index/
Mar 02, 2014 6:57:18 PM org.apache.solr.core.SolrCore initIndex
WARNING: [default] Solr index directory '/storage/personal/clear/sombrero/solr/./default/data/index' doesn't exist. Creating new index...
Mar 02, 2014 6:57:18 PM org.apache.solr.core.CachingDirectoryFactory get
INFO: return new directory for /storage/personal/clear/sombrero/solr/./development/data forceNew: false
Mar 02, 2014 6:57:18 PM org.apache.solr.core.SolrCore getNewIndexDir
INFO: New index directory detected: old=null new=/storage/personal/clear/sombrero/solr/./development/data/index/
Mar 02, 2014 6:57:18 PM org.apache.solr.core.SolrCore initIndex
WARNING: [development] Solr index directory '/storage/personal/clear/sombrero/solr/./development/data/index' doesn't exist. Creating new index...
Mar 02, 2014 6:57:18 PM org.apache.solr.core.CachingDirectoryFactory get
INFO: return new directory for /storage/personal/clear/sombrero/solr/./default/data/index forceNew: false
Mar 02, 2014 6:57:18 PM org.apache.solr.core.CachingDirectoryFactory get
INFO: return new directory for /storage/personal/clear/sombrero/solr/./development/data/index forceNew: false
Mar 02, 2014 6:57:18 PM org.apache.solr.core.CachingDirectoryFactory get
INFO: return new directory for /storage/personal/clear/sombrero/solr/./test/data/index forceNew: false
Mar 02, 2014 6:57:19 PM org.apache.solr.core.SolrDeletionPolicy onCommit
INFO: SolrDeletionPolicy.onCommit: commits:num=1
	commit{dir=NRTCachingDirectory(org.apache.lucene.store.MMapDirectory@/storage/personal/clear/sombrero/solr/default/data/index lockFactory=org.apache.lucene.store.NativeFSLockFactory@728ebb3d; maxCacheMB=48.0 maxMergeSizeMB=4.0),segFN=segments_1,generation=1,filenames=[segments_1]
Mar 02, 2014 6:57:19 PM org.apache.solr.core.SolrDeletionPolicy updateCommits
INFO: newest commit = 1[segments_1]
Mar 02, 2014 6:57:19 PM org.apache.solr.core.SolrDeletionPolicy onCommit
INFO: SolrDeletionPolicy.onCommit: commits:num=1
	commit{dir=NRTCachingDirectory(org.apache.lucene.store.MMapDirectory@/storage/personal/clear/sombrero/solr/development/data/index lockFactory=org.apache.lucene.store.NativeFSLockFactory@2ded1e04; maxCacheMB=48.0 maxMergeSizeMB=4.0),segFN=segments_1,generation=1,filenames=[segments_1]
Mar 02, 2014 6:57:19 PM org.apache.solr.core.SolrDeletionPolicy updateCommits
INFO: newest commit = 1[segments_1]
Mar 02, 2014 6:57:19 PM org.apache.solr.core.SolrDeletionPolicy onCommit
INFO: SolrDeletionPolicy.onCommit: commits:num=1
	commit{dir=NRTCachingDirectory(org.apache.lucene.store.MMapDirectory@/storage/personal/clear/sombrero/solr/test/data/index lockFactory=org.apache.lucene.store.NativeFSLockFactory@2a4db02a; maxCacheMB=48.0 maxMergeSizeMB=4.0),segFN=segments_1,generation=1,filenames=[segments_1]
Mar 02, 2014 6:57:19 PM org.apache.solr.core.SolrDeletionPolicy updateCommits
INFO: newest commit = 1[segments_1]
Mar 02, 2014 6:57:19 PM org.apache.solr.core.RequestHandlers initHandlersFromConfig
INFO: created /select: solr.SearchHandler
Mar 02, 2014 6:57:19 PM org.apache.solr.core.RequestHandlers initHandlersFromConfig
INFO: created /query: solr.SearchHandler
Mar 02, 2014 6:57:19 PM org.apache.solr.core.RequestHandlers initHandlersFromConfig
INFO: created /select: solr.SearchHandler
Mar 02, 2014 6:57:19 PM org.apache.solr.core.RequestHandlers initHandlersFromConfig
INFO: created /query: solr.SearchHandler
Mar 02, 2014 6:57:19 PM org.apache.solr.core.RequestHandlers initHandlersFromConfig
INFO: created /get: solr.RealTimeGetHandler
Mar 02, 2014 6:57:19 PM org.apache.solr.core.RequestHandlers initHandlersFromConfig
INFO: created /get: solr.RealTimeGetHandler
Mar 02, 2014 6:57:19 PM org.apache.solr.core.RequestHandlers initHandlersFromConfig
INFO: created /update: solr.UpdateRequestHandler
Mar 02, 2014 6:57:19 PM org.apache.solr.core.RequestHandlers initHandlersFromConfig
INFO: created /update/json: solr.JsonUpdateRequestHandler
Mar 02, 2014 6:57:19 PM org.apache.solr.core.RequestHandlers initHandlersFromConfig
INFO: created /update: solr.UpdateRequestHandler
Mar 02, 2014 6:57:19 PM org.apache.solr.core.RequestHandlers initHandlersFromConfig
INFO: created /update/csv: solr.CSVRequestHandler
Mar 02, 2014 6:57:19 PM org.apache.solr.core.RequestHandlers initHandlersFromConfig
INFO: adding lazy requestHandler: solr.extraction.ExtractingRequestHandler
Mar 02, 2014 6:57:19 PM org.apache.solr.core.RequestHandlers initHandlersFromConfig
INFO: created /update/json: solr.JsonUpdateRequestHandler
Mar 02, 2014 6:57:19 PM org.apache.solr.core.RequestHandlers initHandlersFromConfig
INFO: created /update/csv: solr.CSVRequestHandler
Mar 02, 2014 6:57:19 PM org.apache.solr.core.RequestHandlers initHandlersFromConfig
INFO: adding lazy requestHandler: solr.extraction.ExtractingRequestHandler
Mar 02, 2014 6:57:19 PM org.apache.solr.core.RequestHandlers initHandlersFromConfig
INFO: created /update/extract: solr.extraction.ExtractingRequestHandler
Mar 02, 2014 6:57:19 PM org.apache.solr.core.RequestHandlers initHandlersFromConfig
INFO: adding lazy requestHandler: solr.FieldAnalysisRequestHandler
Mar 02, 2014 6:57:19 PM org.apache.solr.core.RequestHandlers initHandlersFromConfig
INFO: created /analysis/field: solr.FieldAnalysisRequestHandler
Mar 02, 2014 6:57:19 PM org.apache.solr.core.RequestHandlers initHandlersFromConfig
INFO: adding lazy requestHandler: solr.DocumentAnalysisRequestHandler
Mar 02, 2014 6:57:19 PM org.apache.solr.core.RequestHandlers initHandlersFromConfig
INFO: created /analysis/document: solr.DocumentAnalysisRequestHandler
Mar 02, 2014 6:57:19 PM org.apache.solr.core.RequestHandlers initHandlersFromConfig
INFO: created /admin/ping: solr.PingRequestHandler
Mar 02, 2014 6:57:19 PM org.apache.solr.core.RequestHandlers initHandlersFromConfig
INFO: created /debug/dump: solr.DumpRequestHandler
Mar 02, 2014 6:57:19 PM org.apache.solr.core.RequestHandlers initHandlersFromConfig
INFO: created /select: solr.SearchHandler
Mar 02, 2014 6:57:19 PM org.apache.solr.core.RequestHandlers initHandlersFromConfig
INFO: created /update/extract: solr.extraction.ExtractingRequestHandler
Mar 02, 2014 6:57:19 PM org.apache.solr.core.RequestHandlers initHandlersFromConfig
INFO: adding lazy requestHandler: solr.FieldAnalysisRequestHandler
Mar 02, 2014 6:57:19 PM org.apache.solr.core.RequestHandlers initHandlersFromConfig
INFO: created /analysis/field: solr.FieldAnalysisRequestHandler
Mar 02, 2014 6:57:19 PM org.apache.solr.core.RequestHandlers initHandlersFromConfig
INFO: adding lazy requestHandler: solr.DocumentAnalysisRequestHandler
Mar 02, 2014 6:57:19 PM org.apache.solr.core.RequestHandlers initHandlersFromConfig
INFO: created /analysis/document: solr.DocumentAnalysisRequestHandler
Mar 02, 2014 6:57:19 PM org.apache.solr.core.RequestHandlers initHandlersFromConfig
INFO: created /admin/ping: solr.PingRequestHandler
Mar 02, 2014 6:57:19 PM org.apache.solr.core.RequestHandlers initHandlersFromConfig
INFO: created /debug/dump: solr.DumpRequestHandler
Mar 02, 2014 6:57:19 PM org.apache.solr.core.RequestHandlers initHandlersFromConfig
INFO: created /query: solr.SearchHandler
Mar 02, 2014 6:57:19 PM org.apache.solr.core.RequestHandlers initHandlersFromConfig
INFO: created /get: solr.RealTimeGetHandler
Mar 02, 2014 6:57:19 PM org.apache.solr.core.RequestHandlers initHandlersFromConfig
INFO: created /update: solr.UpdateRequestHandler
Mar 02, 2014 6:57:19 PM org.apache.solr.core.RequestHandlers initHandlersFromConfig
INFO: created /update/json: solr.JsonUpdateRequestHandler
Mar 02, 2014 6:57:19 PM org.apache.solr.core.RequestHandlers initHandlersFromConfig
INFO: created /replication: solr.ReplicationHandler
Mar 02, 2014 6:57:19 PM org.apache.solr.core.RequestHandlers initHandlersFromConfig
INFO: created /replication: solr.ReplicationHandler
Mar 02, 2014 6:57:19 PM org.apache.solr.core.RequestHandlers initHandlersFromConfig
INFO: created /mlt: solr.MoreLikeThisHandler
Mar 02, 2014 6:57:19 PM org.apache.solr.core.RequestHandlers initHandlersFromConfig
INFO: created /update/csv: solr.CSVRequestHandler
Mar 02, 2014 6:57:19 PM org.apache.solr.core.RequestHandlers initHandlersFromConfig
INFO: adding lazy requestHandler: solr.extraction.ExtractingRequestHandler
Mar 02, 2014 6:57:19 PM org.apache.solr.core.RequestHandlers initHandlersFromConfig
INFO: created /update/extract: solr.extraction.ExtractingRequestHandler
Mar 02, 2014 6:57:19 PM org.apache.solr.core.RequestHandlers initHandlersFromConfig
INFO: adding lazy requestHandler: solr.FieldAnalysisRequestHandler
Mar 02, 2014 6:57:19 PM org.apache.solr.core.RequestHandlers initHandlersFromConfig
INFO: created /mlt: solr.MoreLikeThisHandler
Mar 02, 2014 6:57:19 PM org.apache.solr.core.RequestHandlers initHandlersFromConfig
INFO: created /admin/: solr.admin.AdminHandlers
Mar 02, 2014 6:57:19 PM org.apache.solr.core.RequestHandlers initHandlersFromConfig
INFO: created /analysis/field: solr.FieldAnalysisRequestHandler
Mar 02, 2014 6:57:19 PM org.apache.solr.core.RequestHandlers initHandlersFromConfig
INFO: adding lazy requestHandler: solr.DocumentAnalysisRequestHandler
Mar 02, 2014 6:57:19 PM org.apache.solr.core.RequestHandlers initHandlersFromConfig
INFO: created /analysis/document: solr.DocumentAnalysisRequestHandler
Mar 02, 2014 6:57:19 PM org.apache.solr.core.RequestHandlers initHandlersFromConfig
INFO: created /admin/: solr.admin.AdminHandlers
Mar 02, 2014 6:57:19 PM org.apache.solr.core.RequestHandlers initHandlersFromConfig
INFO: created /admin/ping: solr.PingRequestHandler
Mar 02, 2014 6:57:19 PM org.apache.solr.core.RequestHandlers initHandlersFromConfig
INFO: created /debug/dump: solr.DumpRequestHandler
Mar 02, 2014 6:57:19 PM org.apache.solr.core.RequestHandlers initHandlersFromConfig
INFO: created /replication: solr.ReplicationHandler
Mar 02, 2014 6:57:19 PM org.apache.solr.core.RequestHandlers initHandlersFromConfig
INFO: created /mlt: solr.MoreLikeThisHandler
Mar 02, 2014 6:57:19 PM org.apache.solr.core.RequestHandlers initHandlersFromConfig
INFO: created /admin/: solr.admin.AdminHandlers
Mar 02, 2014 6:57:19 PM org.apache.solr.handler.loader.XMLLoader init
INFO: xsltCacheLifetimeSeconds=60
Mar 02, 2014 6:57:19 PM org.apache.solr.handler.loader.XMLLoader init
INFO: xsltCacheLifetimeSeconds=60
Mar 02, 2014 6:57:19 PM org.apache.solr.handler.loader.XMLLoader init
INFO: xsltCacheLifetimeSeconds=60
Mar 02, 2014 6:57:19 PM org.apache.solr.handler.loader.XMLLoader init
INFO: xsltCacheLifetimeSeconds=60
Mar 02, 2014 6:57:19 PM org.apache.solr.handler.loader.XMLLoader init
INFO: xsltCacheLifetimeSeconds=60
Mar 02, 2014 6:57:19 PM org.apache.solr.handler.loader.XMLLoader init
INFO: xsltCacheLifetimeSeconds=60
Mar 02, 2014 6:57:19 PM org.apache.solr.handler.loader.XMLLoader init
INFO: xsltCacheLifetimeSeconds=60
Mar 02, 2014 6:57:19 PM org.apache.solr.handler.loader.XMLLoader init
INFO: xsltCacheLifetimeSeconds=60
Mar 02, 2014 6:57:19 PM org.apache.solr.handler.loader.XMLLoader init
INFO: xsltCacheLifetimeSeconds=60
Mar 02, 2014 6:57:19 PM org.apache.solr.search.SolrIndexSearcher <init>
INFO: Opening Searcher@1570621c main
Mar 02, 2014 6:57:19 PM org.apache.solr.search.SolrIndexSearcher <init>
INFO: Opening Searcher@5392743 main
Mar 02, 2014 6:57:19 PM org.apache.solr.search.SolrIndexSearcher <init>
INFO: Opening Searcher@22d13409 main
Mar 02, 2014 6:57:19 PM org.apache.solr.update.CommitTracker <init>
INFO: Hard AutoCommit: if uncommited for 15000ms; 
Mar 02, 2014 6:57:19 PM org.apache.solr.update.CommitTracker <init>
INFO: Hard AutoCommit: if uncommited for 15000ms; 
Mar 02, 2014 6:57:19 PM org.apache.solr.update.CommitTracker <init>
INFO: Soft AutoCommit: if uncommited for 5000ms; 
Mar 02, 2014 6:57:19 PM org.apache.solr.handler.component.SpellCheckComponent inform
INFO: Initializing spell checkers
Mar 02, 2014 6:57:19 PM org.apache.solr.update.CommitTracker <init>
INFO: Hard AutoCommit: if uncommited for 15000ms; 
Mar 02, 2014 6:57:19 PM org.apache.solr.update.CommitTracker <init>
INFO: Soft AutoCommit: if uncommited for 5000ms; 
Mar 02, 2014 6:57:19 PM org.apache.solr.handler.component.SpellCheckComponent inform
INFO: Initializing spell checkers
Mar 02, 2014 6:57:19 PM org.apache.solr.update.CommitTracker <init>
INFO: Soft AutoCommit: if uncommited for 5000ms; 
Mar 02, 2014 6:57:19 PM org.apache.solr.handler.component.SpellCheckComponent inform
INFO: Initializing spell checkers
Mar 02, 2014 6:57:19 PM org.apache.solr.spelling.DirectSolrSpellChecker init
INFO: init: {name=default,field=name,classname=solr.DirectSolrSpellChecker,distanceMeasure=internal,accuracy=0.5,maxEdits=2,minPrefix=1,maxInspections=5,minQueryLength=4,maxQueryFrequency=0.01}
Mar 02, 2014 6:57:19 PM org.apache.solr.spelling.DirectSolrSpellChecker init
INFO: init: {name=default,field=name,classname=solr.DirectSolrSpellChecker,distanceMeasure=internal,accuracy=0.5,maxEdits=2,minPrefix=1,maxInspections=5,minQueryLength=4,maxQueryFrequency=0.01}
Mar 02, 2014 6:57:19 PM org.apache.solr.spelling.DirectSolrSpellChecker init
INFO: init: {name=default,field=name,classname=solr.DirectSolrSpellChecker,distanceMeasure=internal,accuracy=0.5,maxEdits=2,minPrefix=1,maxInspections=5,minQueryLength=4,maxQueryFrequency=0.01}
Mar 02, 2014 6:57:19 PM org.apache.solr.handler.component.SpellCheckComponent inform
INFO: No queryConverter defined, using default converter
Mar 02, 2014 6:57:19 PM org.apache.solr.handler.component.SpellCheckComponent inform
INFO: No queryConverter defined, using default converter
Mar 02, 2014 6:57:19 PM org.apache.solr.handler.component.SpellCheckComponent inform
INFO: No queryConverter defined, using default converter
Mar 02, 2014 6:57:19 PM org.apache.solr.handler.ReplicationHandler inform
INFO: Commits will be reserved for  10000
Mar 02, 2014 6:57:19 PM org.apache.solr.handler.ReplicationHandler inform
INFO: Commits will be reserved for  10000
Mar 02, 2014 6:57:19 PM org.apache.solr.handler.ReplicationHandler inform
INFO: Commits will be reserved for  10000
Mar 02, 2014 6:57:19 PM org.apache.solr.core.SolrCore registerSearcher
INFO: [test] Registered new searcher Searcher@5392743 main{StandardDirectoryReader(segments_1:1)}
Mar 02, 2014 6:57:19 PM org.apache.solr.core.SolrCore registerSearcher
INFO: [development] Registered new searcher Searcher@1570621c main{StandardDirectoryReader(segments_1:1)}
Mar 02, 2014 6:57:19 PM org.apache.solr.core.CoreContainer registerCore
INFO: registering core: development
Mar 02, 2014 6:57:19 PM org.apache.solr.core.CoreContainer registerCore
INFO: registering core: test
Mar 02, 2014 6:57:19 PM org.apache.solr.core.CoreContainer registerCore
INFO: registering core: default
Mar 02, 2014 6:57:19 PM org.apache.solr.core.SolrCore registerSearcher
INFO: [default] Registered new searcher Searcher@22d13409 main{StandardDirectoryReader(segments_1:1)}
Mar 02, 2014 6:57:19 PM org.apache.solr.servlet.SolrDispatchFilter init
INFO: user.dir=/usr/local/rvm/gems/ruby-2.1.0/gems/sunspot_solr-2.1.0/solr
Mar 02, 2014 6:57:19 PM org.apache.solr.servlet.SolrDispatchFilter init
INFO: SolrDispatchFilter.init() done
